A Minimal Book Example
…
## src:  fst files in C:\Users\Lucie\Documents\GitHub\USSR\Livrable\Essais
## tbls: mtcars, mtcars2

Accès au contenu d’un fichier du répertoire sans le charger entièrement

La fonction tbl établit une connexion entre un fichier du répertoire et R. Le nom du fichier est à spécifier sans le suffixe ‘fst’, tel que listé dans l’exemple précédent.

c <- tbl(base,"mtcars")
# Recupèrer les seules variables 'cyl' et 'mpg'.
c1 <- c %>% select(cyl,mpg)
c1

## # A tibble: 32 x 2
##      cyl   mpg
##    <dbl> <dbl>
##  1     6  21  
##  2     6  21  
##  3     4  22.8
##  4     6  21.4
##  5     8  18.7
##  6     6  18.1
##  7     8  14.3
##  8     4  24.4
##  9     4  22.8
## 10     6  19.2
## # ... with 22 more rows
…
